Hot 100 Spotify Analysis
…
Hot 100 Spotify Analysis

Marques Chacon

12/2/2021

Introduction - Loading the Necessary Plots

Music plays an instrumental part of my livelihood and I have always wanted to understand exactly what kinds of audio features made a song popular. I have done an analysis on Spotify music before, but for this project, I wanted to look specifically at Billboard music data, specifically the Hot 100 music charts. These charts cover a wide variety of genres, including pop, rock, hip-hop, country, and electronic. What I hope to uncover with this analysis involves identifying relevant audio features for popular songs throughout the decades. I want to analyze which features people like in popular songs, and how it differed across different periods of time. To start with this analysis, I downloaded a csv file off of Kaggle, and loaded it into R:

charted_spotify_data <- read_csv(here("data", "charted_spotify_data.csv"))
charted_spotify_data

## # A tibble: 317,672 x 23
##    date    rank song  artist `last-week` `peak-rank` `weeks-on-board` spotify_id
##    <chr>  <dbl> <chr> <chr>        <dbl>       <dbl>            <dbl> <chr>     
##  1 11/6/~     1 Easy~ Adele            1           1                3 0gplL1WMo~
##  2 11/6/~     2 Stay  The K~           2           1               16 5HCyWlXZP~
##  3 11/6/~     3 Indu~ Lil N~           3           1               14 27NovPIUI~
##  4 11/6/~     4 Fanc~ Walke~           4           3               19 3ZozFqJJl~
##  5 11/6/~     5 Bad ~ Ed Sh~           5           2               18 3rmo8F54j~
##  6 11/6/~     6 Way ~ Drake~           6           1                8 0k1WUmIRn~
##  7 11/6/~     7 Shiv~ Ed Sh~           9           7                7 50nfwKoDi~
##  8 11/6/~     8 Good~ Olivi~           7           1               24 4ZtFanR9U~
##  9 11/6/~     9 Need~ Doja ~          11           9               20 3Vi5XqYrm~
## 10 11/6/~    10 Levi~ Dua L~           8           2               56 5nujrmhLy~
## # ... with 317,662 more rows, and 15 more variables: spotify_artist <chr>,
## #   popularity <dbl>, release_date <chr>, danceability <dbl>, energy <dbl>,
## #   key <dbl>, loudness <dbl>, mode <dbl>, acousticness <dbl>,
## #   instrumentalness <dbl>, liveness <dbl>, valence <dbl>, tempo <dbl>,
## #   duration_ms <dbl>, time_signature <dbl>
…
  mutate(date = mdy(date)) %>%
  mutate(month_yr = ym(format_ISO8601(date, precision = "ym"))) %>%
  group_by(month_yr) %>%
  summarize(mean_popularity = mean(popularity), mean_danceability = mean(danceability),
            mean_energy = mean(energy),
            mean_loudness = mean(loudness),
            mean_acousticness = mean(acousticness),
            mean_instrumentalness = mean(instrumentalness),
            mean_liveness = mean(liveness),
            mean_valence = mean(valence),
            mean_tempo = mean(tempo),
            mean_duration = mean(duration_ms))
monthly_averages

## # A tibble: 760 x 11
##    month_yr   mean_popularity mean_danceability mean_energy mean_loudness
##    <date>               <dbl>             <dbl>       <dbl>         <dbl>
##  1 1958-08-01            26.4             0.570       0.487         -10.5
##  2 1958-09-01            24.4             0.558       0.489         -10.4
##  3 1958-10-01            23.3             0.546       0.488         -10.3
##  4 1958-11-01            22.8             0.533       0.488         -10.6
##  5 1958-12-01            23.5             0.529       0.486         -10.7
##  6 1959-01-01            22.7             0.528       0.483         -10.7
##  7 1959-02-01            23.7             0.535       0.482         -10.7
##  8 1959-03-01            23.3             0.526       0.488         -10.7
##  9 1959-04-01            24.2             0.541       0.498         -10.8
## 10 1959-05-01            24.5            NA          NA              NA  
## # ... with 750 more rows, and 6 more variables: mean_acousticness <dbl>,
## #   mean_instrumentalness <dbl>, mean_liveness <dbl>, mean_valence <dbl>,
## #   mean_tempo <dbl>, mean_duration <dbl>
…
Looking at these graphs, it is clear that weighting by rank did not affect the graph in any way. Thus, it is clear that the trends associated from the first plot are reflected across most of the songs for a particular time period, not just the most popular.

Correlations Across Different Audio Features

In the next part of my analysis, we shift gears from looking at historical trends, and focus more on the qualities of music in general. For this, I wanted to create correlation plots that highlight which features had the most impact on each other. This will tell us the variables that have the strongest association with each other. To start, I created a dataset of distinct songs, to avoid counting songs multiple times.

distinct_ids <- charted_spotify_data %>%
  distinct(spotify_id, .keep_all = TRUE)
distinct_ids

## # A tibble: 27,101 x 23
##    date    rank song  artist `last-week` `peak-rank` `weeks-on-board` spotify_id
##    <chr>  <dbl> <chr> <chr>        <dbl>       <dbl>            <dbl> <chr>     
##  1 11/6/~     1 Easy~ Adele            1           1                3 0gplL1WMo~
##  2 11/6/~     2 Stay  The K~           2           1               16 5HCyWlXZP~
##  3 11/6/~     3 Indu~ Lil N~           3           1               14 27NovPIUI~
##  4 11/6/~     4 Fanc~ Walke~           4           3               19 3ZozFqJJl~
##  5 11/6/~     5 Bad ~ Ed Sh~           5           2               18 3rmo8F54j~
##  6 11/6/~     6 Way ~ Drake~           6           1                8 0k1WUmIRn~
##  7 11/6/~     7 Shiv~ Ed Sh~           9           7                7 50nfwKoDi~
##  8 11/6/~     8 Good~ Olivi~           7           1               24 4ZtFanR9U~
##  9 11/6/~     9 Need~ Doja ~          11           9               20 3Vi5XqYrm~
## 10 11/6/~    10 Levi~ Dua L~           8           2               56 5nujrmhLy~
## # ... with 27,091 more rows, and 15 more variables: spotify_artist <chr>,
## #   popularity <dbl>, release_date <chr>, danceability <dbl>, energy <dbl>,
## #   key <dbl>, loudness <dbl>, mode <dbl>, acousticness <dbl>,
## #   instrumentalness <dbl>, liveness <dbl>, valence <dbl>, tempo <dbl>,
## #   duration_ms <dbl>, time_signature <dbl>
…
